DC-Build-Header: solfege 3.23.4-8 / 2020-08-03 22:02:33 +0000
DC-Task: type:rebuild-full source:solfege version:3.23.4-8 chroot:unstable esttime:195 logfile:/tmp/solfege_3.23.4-8_unstable.log modes:
DC-Sbuild-call: su user42 -c 'sbuild -n -A -s --force-orig-source --apt-update -d unstable -v --no-run-lintian solfege_3.23.4-8'
sbuild (Debian sbuild) 0.78.1 (09 February 2019) on ip-172-31-5-32.eu-central-1.compute.internal

+==============================================================================+
| solfege 3.23.4-8 (amd64)                     Mon, 03 Aug 2020 22:02:34 +0000 |
+==============================================================================+

Package: solfege
Version: 3.23.4-8
Source Version: 3.23.4-8
Distribution: unstable
Machine Architecture: amd64
Host Architecture: amd64
Build Architecture: amd64
Build Type: full

I: NOTICE: Log filtering will replace 'var/run/schroot/mount/sid-amd64-sbuild-7db10ce8-e7b6-4b6c-90eb-57e674ab14e8' with '<<CHROOT>>'
I: NOTICE: Log filtering will replace 'build/solfege-doAxDh/resolver-K10VkH' with '<<RESOLVERDIR>>'

+------------------------------------------------------------------------------+
| Update chroot                                                                |
+------------------------------------------------------------------------------+

Get:1 http://127.0.0.1:12990/debian sid InRelease [146 kB]
Get:2 http://127.0.0.1:12990/debian sid/main Sources.diff/Index [27.9 kB]
Get:3 http://127.0.0.1:12990/debian sid/main amd64 Packages.diff/Index [27.9 kB]
Get:4 http://127.0.0.1:12990/debian sid/main Sources 2020-08-03-1400.41.pdiff [12.4 kB]
Get:5 http://127.0.0.1:12990/debian sid/main Sources 2020-08-03-2000.45.pdiff [13.5 kB]
Get:5 http://127.0.0.1:12990/debian sid/main Sources 2020-08-03-2000.45.pdiff [13.5 kB]
Get:6 http://127.0.0.1:12990/debian sid/main amd64 Packages 2020-08-03-1400.41.pdiff [15.6 kB]
Get:7 http://127.0.0.1:12990/debian sid/main amd64 Packages 2020-08-03-2000.45.pdiff [10.3 kB]
Get:7 http://127.0.0.1:12990/debian sid/main amd64 Packages 2020-08-03-2000.45.pdiff [10.3 kB]
Fetched 254 kB in 1s (250 kB/s)
Reading package lists...
Reading package lists...
Building dependency tree...
Calculating upgrade...
The following packages will be upgraded:
  libsystemd0 libudev1
2 upgraded, 0 newly installed, 0 to remove and 0 not upgraded.
Need to get 530 kB of archives.
After this operation, 37.9 kB of additional disk space will be used.
Get:1 http://127.0.0.1:12990/debian sid/main amd64 libsystemd0 amd64 246-2 [369 kB]
Get:2 http://127.0.0.1:12990/debian sid/main amd64 libudev1 amd64 246-2 [161 kB]
debconf: delaying package configuration, since apt-utils is not installed
Fetched 530 kB in 0s (9392 kB/s)
(Reading database ... (Reading database ... 5%(Reading database ... 10%(Reading database ... 15%(Reading database ... 20%(Reading database ... 25%(Reading database ... 30%(Reading database ... 35%(Reading database ... 40%(Reading database ... 45%(Reading database ... 50%(Reading database ... 55%(Reading database ... 60%(Reading database ... 65%(Reading database ... 70%(Reading database ... 75%(Reading database ... 80%(Reading database ... 85%(Reading database ... 90%(Reading database ... 95%(Reading database ... 100%(Reading database ... 12183 files and directories currently installed.)
Preparing to unpack .../libsystemd0_246-2_amd64.deb ...
Unpacking libsystemd0:amd64 (246-2) over (245.7-1) ...
Setting up libsystemd0:amd64 (246-2) ...
(Reading database ... (Reading database ... 5%(Reading database ... 10%(Reading database ... 15%(Reading database ... 20%(Reading database ... 25%(Reading database ... 30%(Reading database ... 35%(Reading database ... 40%(Reading database ... 45%(Reading database ... 50%(Reading database ... 55%(Reading database ... 60%(Reading database ... 65%(Reading database ... 70%(Reading database ... 75%(Reading database ... 80%(Reading database ... 85%(Reading database ... 90%(Reading database ... 95%(Reading database ... 100%(Reading database ... 12183 files and directories currently installed.)
Preparing to unpack .../libudev1_246-2_amd64.deb ...
Unpacking libudev1:amd64 (246-2) over (245.7-1) ...
Setting up libudev1:amd64 (246-2) ...
Processing triggers for libc-bin (2.31-2) ...

+------------------------------------------------------------------------------+
| Fetch source files                                                           |
+------------------------------------------------------------------------------+


Check APT
---------

Checking available source versions...

Download source files with APT
------------------------------

Reading package lists...
NOTICE: 'solfege' packaging is maintained in the 'Git' version control system at:
https://salsa.debian.org/mzf/solfege.git
Please use:
git clone https://salsa.debian.org/mzf/solfege.git
to retrieve the latest (possibly unreleased) updates to the package.
Need to get 5165 kB of source archives.
Get:1 http://127.0.0.1:12990/debian sid/main solfege 3.23.4-8 (dsc) [2162 B]
Get:2 http://127.0.0.1:12990/debian sid/main solfege 3.23.4-8 (tar) [5148 kB]
Get:3 http://127.0.0.1:12990/debian sid/main solfege 3.23.4-8 (diff) [14.6 kB]
Fetched 5165 kB in 0s (42.8 MB/s)
Download complete and in download only mode
I: NOTICE: Log filtering will replace 'build/solfege-doAxDh/solfege-3.23.4' with '<<PKGBUILDDIR>>'
I: NOTICE: Log filtering will replace 'build/solfege-doAxDh' with '<<BUILDDIR>>'

+------------------------------------------------------------------------------+
| Install package build dependencies                                           |
+------------------------------------------------------------------------------+


Setup apt archive
-----------------

Merged Build-Depends: debhelper, debhelper-compat (= 13), dh-python, docbook-xml, docbook-xsl, gettext, gir1.2-gtk-3.0, itstool, lilypond, python3-dev, python3-gi, python3-gi-cairo, swig, texinfo, txt2man, xauth, xsltproc, xvfb, build-essential, fakeroot
Filtered Build-Depends: debhelper, debhelper-compat (= 13), dh-python, docbook-xml, docbook-xsl, gettext, gir1.2-gtk-3.0, itstool, lilypond, python3-dev, python3-gi, python3-gi-cairo, swig, texinfo, txt2man, xauth, xsltproc, xvfb, build-essential, fakeroot
dpkg-deb: building package 'sbuild-build-depends-main-dummy' in '/<<RESOLVERDIR>>/apt_archive/sbuild-build-depends-main-dummy.deb'.
Ign:1 copy:/<<RESOLVERDIR>>/apt_archive ./ InRelease
Get:2 copy:/<<RESOLVERDIR>>/apt_archive ./ Release [957 B]
Ign:3 copy:/<<RESOLVERDIR>>/apt_archive ./ Release.gpg
Get:4 copy:/<<RESOLVERDIR>>/apt_archive ./ Sources [463 B]
Get:5 copy:/<<RESOLVERDIR>>/apt_archive ./ Packages [548 B]
Fetched 1968 B in 0s (0 B/s)
Reading package lists...
Reading package lists...

Install main build dependencies (apt-based resolver)
----------------------------------------------------

Installing build dependencies
Reading package lists...
Building dependency tree...
Reading state information...
Some packages could not be installed. This may mean that you have
requested an impossible situation or if you are using the unstable
distribution that some required packages have not yet been created
or been moved out of Incoming.
The following information may help to resolve the situation:

The following packages have unmet dependencies:
 python : PreDepends: python-minimal (= 2.7.17-2) but it is not going to be installed
          Depends: libpython-stdlib (= 2.7.17-2) but it is not going to be installed
          Depends: python2 (= 2.7.17-2) but 2.7.18-1 is to be installed
E: Unable to correct problems, you have held broken packages.
apt-get failed.
E: Package installation failed
Not removing build depends: cloned chroot in use

Setup apt archive
-----------------

Merged Build-Depends: dose-distcheck
Filtered Build-Depends: dose-distcheck
dpkg-deb: building package 'sbuild-build-depends-dose3-dummy' in '/<<RESOLVERDIR>>/apt_archive/sbuild-build-depends-dose3-dummy.deb'.
Ign:1 copy:/<<RESOLVERDIR>>/apt_archive ./ InRelease
Get:2 copy:/<<RESOLVERDIR>>/apt_archive ./ Release [963 B]
Ign:3 copy:/<<RESOLVERDIR>>/apt_archive ./ Release.gpg
Get:4 copy:/<<RESOLVERDIR>>/apt_archive ./ Sources [601 B]
Get:5 copy:/<<RESOLVERDIR>>/apt_archive ./ Packages [684 B]
Fetched 2248 B in 0s (0 B/s)
Reading package lists...
Reading package lists...

Install dose3 build dependencies (apt-based resolver)
-----------------------------------------------------

Installing build dependencies
Reading package lists...
Building dependency tree...
Reading state information...
The following additional packages will be installed:
  dose-distcheck libcap2 libelf1 liblua5.2-0 libnspr4 libnss3 libpopt0 librpm8
  librpmio8 libsqlite3-0
Recommended packages:
  rpm-common
The following NEW packages will be installed:
  dose-distcheck libcap2 libelf1 liblua5.2-0 libnspr4 libnss3 libpopt0 librpm8
  librpmio8 libsqlite3-0 sbuild-build-depends-dose3-dummy
0 upgraded, 11 newly installed, 0 to remove and 0 not upgraded.
Need to get 6516 kB of archives.
After this operation, 16.1 MB of additional disk space will be used.
Get:1 copy:/<<RESOLVERDIR>>/apt_archive ./ sbuild-build-depends-dose3-dummy 0.invalid.0 [848 B]
Get:2 http://127.0.0.1:12990/debian sid/main amd64 libcap2 amd64 1:2.36-1 [22.6 kB]
Get:3 http://127.0.0.1:12990/debian sid/main amd64 liblua5.2-0 amd64 5.2.4-1.1+b3 [108 kB]
Get:4 http://127.0.0.1:12990/debian sid/main amd64 libpopt0 amd64 1.18-1 [49.7 kB]
Get:5 http://127.0.0.1:12990/debian sid/main amd64 libelf1 amd64 0.180-1+b1 [165 kB]
Get:6 http://127.0.0.1:12990/debian sid/main amd64 libnspr4 amd64 2:4.27-1 [112 kB]
Get:7 http://127.0.0.1:12990/debian sid/main amd64 libsqlite3-0 amd64 3.32.3-1 [753 kB]
Get:8 http://127.0.0.1:12990/debian sid/main amd64 libnss3 amd64 2:3.55-1 [1297 kB]
Get:9 http://127.0.0.1:12990/debian sid/main amd64 librpmio8 amd64 4.14.2.1+dfsg1-1.1+b1 [1383 kB]
Get:10 http://127.0.0.1:12990/debian sid/main amd64 librpm8 amd64 4.14.2.1+dfsg1-1.1+b1 [1485 kB]
Get:11 http://127.0.0.1:12990/debian sid/main amd64 dose-distcheck amd64 5.0.1-15 [1140 kB]
debconf: delaying package configuration, since apt-utils is not installed
Fetched 6516 kB in 0s (123 MB/s)
Selecting previously unselected package libcap2:amd64.
(Reading database ... 12183 files and directories currently installed.)
Preparing to unpack .../00-libcap2_1%3a2.36-1_amd64.deb ...
Unpacking libcap2:amd64 (1:2.36-1) ...
Selecting previously unselected package liblua5.2-0:amd64.
Preparing to unpack .../01-liblua5.2-0_5.2.4-1.1+b3_amd64.deb ...
Unpacking liblua5.2-0:amd64 (5.2.4-1.1+b3) ...
Selecting previously unselected package libpopt0:amd64.
Preparing to unpack .../02-libpopt0_1.18-1_amd64.deb ...
Unpacking libpopt0:amd64 (1.18-1) ...
Selecting previously unselected package libelf1:amd64.
Preparing to unpack .../03-libelf1_0.180-1+b1_amd64.deb ...
Unpacking libelf1:amd64 (0.180-1+b1) ...
Selecting previously unselected package libnspr4:amd64.
Preparing to unpack .../04-libnspr4_2%3a4.27-1_amd64.deb ...
Unpacking libnspr4:amd64 (2:4.27-1) ...
Selecting previously unselected package libsqlite3-0:amd64.
Preparing to unpack .../05-libsqlite3-0_3.32.3-1_amd64.deb ...
Unpacking libsqlite3-0:amd64 (3.32.3-1) ...
Selecting previously unselected package libnss3:amd64.
Preparing to unpack .../06-libnss3_2%3a3.55-1_amd64.deb ...
Unpacking libnss3:amd64 (2:3.55-1) ...
Selecting previously unselected package librpmio8.
Preparing to unpack .../07-librpmio8_4.14.2.1+dfsg1-1.1+b1_amd64.deb ...
Unpacking librpmio8 (4.14.2.1+dfsg1-1.1+b1) ...
Selecting previously unselected package librpm8.
Preparing to unpack .../08-librpm8_4.14.2.1+dfsg1-1.1+b1_amd64.deb ...
Unpacking librpm8 (4.14.2.1+dfsg1-1.1+b1) ...
Selecting previously unselected package dose-distcheck.
Preparing to unpack .../09-dose-distcheck_5.0.1-15_amd64.deb ...
Unpacking dose-distcheck (5.0.1-15) ...
Selecting previously unselected package sbuild-build-depends-dose3-dummy.
Preparing to unpack .../10-sbuild-build-depends-dose3-dummy_0.invalid.0_amd64.deb ...
Unpacking sbuild-build-depends-dose3-dummy (0.invalid.0) ...
Setting up libsqlite3-0:amd64 (3.32.3-1) ...
Setting up libcap2:amd64 (1:2.36-1) ...
Setting up libnspr4:amd64 (2:4.27-1) ...
Setting up liblua5.2-0:amd64 (5.2.4-1.1+b3) ...
Setting up libelf1:amd64 (0.180-1+b1) ...
Setting up libpopt0:amd64 (1.18-1) ...
Setting up libnss3:amd64 (2:3.55-1) ...
Setting up librpmio8 (4.14.2.1+dfsg1-1.1+b1) ...
Setting up librpm8 (4.14.2.1+dfsg1-1.1+b1) ...
Setting up dose-distcheck (5.0.1-15) ...
Setting up sbuild-build-depends-dose3-dummy (0.invalid.0) ...
Processing triggers for libc-bin (2.31-2) ...
(I)StdLoaders: Parsing and normalizing...
(I)Packages: Parsing Packages file -...
(I)Format822: total packages 60015
(I)Distcheck: Cudf Universe: 60015 packages
(I)Distcheck: --checkonly specified, consider all packages as background packages
(I)Distcheck: Solving...
output-version: 1.2
native-architecture: amd64
report:
 -
  package: sbuild-build-depends-main-dummy
  version: 0.invalid.0
  architecture: amd64
  status: broken
  reasons:
   -
    missing:
     pkg:
      package: libpython-stdlib
      version: 2.7.17-2
      architecture: amd64
      unsat-dependency: libpython2-stdlib:amd64 (= 2.7.17-2)
     depchains:
      -
       depchain:
        -
         package: sbuild-build-depends-main-dummy
         version: 0.invalid.0
         architecture: amd64
         depends: lilypond:amd64
        -
         package: lilypond
         version: 2.20.0-1
         architecture: amd64
         depends: python
        -
         package: python
         version: 2.7.17-2
         architecture: amd64
         depends: libpython-stdlib:amd64 (= 2.7.17-2)
 
background-packages: 60014
foreground-packages: 1
total-packages: 60015
broken-packages: 1

+------------------------------------------------------------------------------+
| Cleanup                                                                      |
+------------------------------------------------------------------------------+

Purging /<<BUILDDIR>>
Not cleaning session: cloned chroot in use
E: Package build dependencies not satisfied; skipping

+------------------------------------------------------------------------------+
| Summary                                                                      |
+------------------------------------------------------------------------------+

Build Architecture: amd64
Build Type: full
Build-Space: n/a
Build-Time: 0
Distribution: unstable
Fail-Stage: install-deps
Host Architecture: amd64
Install-Time: 0
Job: solfege_3.23.4-8
Machine Architecture: amd64
Package: solfege
Package-Time: 0
Source-Version: 3.23.4-8
Space: n/a
Status: given-back
Version: 3.23.4-8
--------------------------------------------------------------------------------
Finished at 2020-08-03T22:02:34Z
Build needed 00:00:00, no disk space
E: Package build dependencies not satisfied; skipping
DC-Status: Failed 15.51946758s
DC-Time-Estimation: 15.51946758 versus expected 195 (r/m: 11.564864032532745 ; m: 15.51946758)
